DeployEnvironment,DeployCreds,ServerName,FileName
Dev,Dev,588114-DB6.anrgwad.local,dev-execute1.sql
Sbx,Sbx,628061-SQLCLUS2.anrgwad.local,sbx-execute1.sql
Prod,Prod,534523-SQLCLUS1,prod-execute1.sql
